Gapminder
…
DF1 <- DF %>% mutate(across(.cols = -country, 
                          .fns = ~func(.x)))
DF1

##   country    1799    1800 1801
## 1       A 8100000    2400 6040
## 2       B    3000 7.5e+07   23

Applying this function to the variables population and income which containing those numerical units I was confused.

popu <- popu %>% mutate(across(.cols = -country, 
                          .fns = ~func(.x)))
popu

## # A tibble: 197 x 302
##    country `1799` `1800` `1801` `1802` `1803` `1804` `1805` `1806` `1807` `1808`
##    <chr>   <chr>  <chr>  <chr>  <chr>  <chr>  <chr>  <chr>  <chr>  <chr>  <chr> 
##  1 Afghan~ 32800~ 32800~ 32800~ 32800~ 32800~ 32800~ 32800~ 32800~ 32800~ 32800~
##  2 Angola  15700~ 15700~ 15700~ 15700~ 15700~ 15700~ 15700~ 15700~ 15700~ 15700~
##  3 Albania 4e+05  402000 404000 405000 407000 409000 411000 413000 414000 416000
##  4 Andorra 2650   2650   2650   2650   2650   2650   2650   2650   2650   2650  
##  5 United~ 40200  40200  40200  40200  40200  40200  40200  40200  40200  40200 
##  6 Argent~ 534000 520000 506000 492000 479000 466000 453000 441000 429000 417000
##  7 Armenia 413000 413000 413000 413000 413000 413000 413000 413000 413000 413000
##  8 Antigu~ 37000  37000  37000  37000  37000  37000  37000  37000  37000  37000 
##  9 Austra~ 2e+05  205000 211000 216000 222000 227000 233000 239000 246000 252000
## 10 Austria 3e+06  30200~ 30400~ 30500~ 30700~ 30900~ 31100~ 31200~ 31400~ 31600~
## # ... with 187 more rows, and 291 more variables: `1809` <chr>, `1810` <chr>,
## #   `1811` <chr>, `1812` <chr>, `1813` <chr>, `1814` <chr>, `1815` <chr>,
## #   `1816` <chr>, `1817` <chr>, `1818` <chr>, `1819` <chr>, `1820` <chr>,
## #   `1821` <chr>, `1822` <chr>, `1823` <chr>, `1824` <chr>, `1825` <chr>,
## #   `1826` <chr>, `1827` <chr>, `1828` <chr>, `1829` <chr>, `1830` <chr>,
## #   `1831` <chr>, `1832` <chr>, `1833` <chr>, `1834` <chr>, `1835` <chr>,
## #   `1836` <chr>, `1837` <chr>, `1838` <chr>, `1839` <chr>, `1840` <chr>, ...

income <- income %>% mutate(across(.cols = -country, 
                          .fns = ~func(.x)))
income

## # A tibble: 195 x 252
##    country `1799` `1800` `1801` `1802` `1803` `1804` `1805` `1806` `1807` `1808`
##    <chr>    <dbl>  <dbl>  <dbl>  <dbl>  <dbl>  <dbl>  <dbl>  <dbl>  <dbl>  <dbl>
##  1 Afghan~    683    683    683    683    683    683    683    683    683    683
##  2 Angola     700    702    705    709    711    714    718    721    725    727
##  3 Albania    755    755    755    755    755    756    756    756    756    756
##  4 Andorra   1360   1360   1360   1360   1370   1370   1370   1370   1380   1380
##  5 United~   1130   1130   1140   1140   1150   1150   1160   1160   1160   1170
##  6 Argent~   1730   1730   1740   1740   1750   1760   1760   1770   1770   1780
##  7 Armenia    582    582    582    582    582    582    582    582    582    582
##  8 Antigu~    857    857    857    857    857    857    857    858    858    858
##  9 Austra~    925    930    936    941    947    952    956    962    968    973
## 10 Austria   2090   2100   2110   2120   2130   2130   2140   2150   2160   2170
## # ... with 185 more rows, and 241 more variables: `1809` <dbl>, `1810` <dbl>,
## #   `1811` <dbl>, `1812` <dbl>, `1813` <dbl>, `1814` <dbl>, `1815` <dbl>,
## #   `1816` <dbl>, `1817` <dbl>, `1818` <dbl>, `1819` <dbl>, `1820` <dbl>,
## #   `1821` <dbl>, `1822` <dbl>, `1823` <dbl>, `1824` <dbl>, `1825` <dbl>,
## #   `1826` <dbl>, `1827` <dbl>, `1828` <dbl>, `1829` <dbl>, `1830` <dbl>,
## #   `1831` <dbl>, `1832` <dbl>, `1833` <dbl>, `1834` <dbl>, `1835` <dbl>,
## #   `1836` <dbl>, `1837` <dbl>, `1838` <dbl>, `1839` <dbl>, `1840` <dbl>, ...
…
And, combing multiple CSV files from 1960 to 2020.

Using lefe_jion to combine those information together by country and year.

Study <- left_join(life_ex_tidy, popu_tidy)
Study <- left_join(Study, income_tidy)
Study <- left_join(Study, child_mortality_tidy)
Study <- left_join(Study, CO2_tidy)
Study <- left_join(Study, baby_tidy)
Study <- drop_na(Study)
Study

## # A tibble: 10,557 x 8
##    country     year  life_expectancy population income child_mort~1    CO2  baby
##    <chr>       <chr>           <dbl>      <dbl>  <dbl>        <dbl>  <dbl> <dbl>
##  1 Afghanistan 1960             45.3    9170000   1520          351 0.0536  7.45
##  2 Afghanistan 1961             45.5    9350000   1510          345 0.0737  7.45
##  3 Afghanistan 1962             45.7    9540000   1510          340 0.0741  7.45
##  4 Afghanistan 1963             45.9    9740000   1500          335 0.0861  7.45
##  5 Afghanistan 1964             46.1    9960000   1500          330 0.101   7.45
##  6 Afghanistan 1965             46.3   10200000   1480          324 0.107   7.45
##  7 Afghanistan 1966             46.5   10400000   1480          319 0.123   7.45
##  8 Afghanistan 1967             46.7   10600000   1500          314 0.115   7.45
##  9 Afghanistan 1968             46.9   10900000   1490          308 0.0865  7.45
## 10 Afghanistan 1969             47.1   11200000   1480          303 0.15    7.45
## # ... with 10,547 more rows, and abbreviated variable name 1: child_mortality
…
grp_gap_data <- 
  Study1 %>% 
    group_by(year, continent) %>% 
    summarize(
      count = n(),
      ave_life   = mean(life_expectancy, na.rm = TRUE),
      ave_popu   = mean(population, na.rm = TRUE),
      ave_income   = mean(income, na.rm = TRUE),
      ave_child_mortality = mean(child_mortality, na.rm = TRUE),
      ave_CO2   = mean(CO2, na.rm = TRUE),
      ave_baby   = mean(baby, na.rm = TRUE),
    )
grp_gap_data

## # A tibble: 290 x 9
## # Groups:   year [58]
##    year  continent count ave_life  ave_popu ave_income ave_chi~1 ave_CO2 ave_b~2
##    <chr> <chr>     <int>    <dbl>     <dbl>      <dbl>     <dbl>   <dbl>   <dbl>
##  1 1960  Africa       45     46.8  6234278.      2184.     268.    0.346    6.68
##  2 1960  Americas     33     60.5 13073664.      6324.     123.    1.94     5.89
##  3 1960  Asia         41     56.7 41047780.      8954.     165.    2.83     5.97
##  4 1960  Europe       38     69.3 16031526.      9969.      51.5   5.69     2.80
##  5 1960  Oceania       8     60.3  1983238.      6266.     113.    1.83     5.98
##  6 1961  Africa       45     47.6  6388071.      2175.     264.    0.341    6.70
##  7 1961  Americas     33     61.1 13334661.      6528.     119.    2.16     5.85
##  8 1961  Asia         41     57.4 41871605.      9587.     157.    3.12     6.03
##  9 1961  Europe       38     69.2 16209500      10306.      48.9   5.95     2.77
## 10 1961  Oceania       9     59.6  1806700       5879.     113.    1.71     6.05
## # ... with 280 more rows, and abbreviated variable names
## #   1: ave_child_mortality, 2: ave_baby
…
grp_gap_data1

## # A tibble: 1,276 x 9
## # Groups:   year [58]
##    year  region            count ave_l~1 ave_p~2 ave_i~3 ave_c~4 ave_CO2 ave_b~5
##    <chr> <chr>             <int>   <dbl>   <dbl>   <dbl>   <dbl>   <dbl>   <dbl>
##  1 1960  Australia and Ne~     2    71.2  6.41e6  17050     25.6   6.76     3.56
##  2 1960  Caribbean            11    62.4  1.62e6   5703.   105.    1.42     5.71
##  3 1960  Central America       8    57.2  6.60e6   3875    157.    0.570    6.72
##  4 1960  Central Asia          5    57.8  5.03e6   6006    157.    6.08     5.95
##  5 1960  Eastern Africa       14    48.1  5.61e6   1777.   233.    0.307    7.07
##  6 1960  Eastern Asia          5    56.3  1.59e8   3623.   136.    1.37     4.69
##  7 1960  Eastern Europe       10    68.6  2.56e7   6574     55.1   6.08     2.53
##  8 1960  Melanesia             3    55.1  9.43e5   2380    148.    0.208    6.32
##  9 1960  Micronesia            1    48.6  4.22e4   3310    190     0.174    6.8 
## 10 1960  Middle Africa         8    43.4  4.10e6   2584.   264.    0.129    5.99
## # ... with 1,266 more rows, and abbreviated variable names 1: ave_life,
## #   2: ave_popu, 3: ave_income, 4: ave_child_mortality, 5: ave_baby
…
